{
  "projectId": "iq9q9w",
  "chromeWebSecurity": false,
  "baseUrl":"http://automationpractice.com/index.php",
  "numTestsKeptInMemory": 0,
  "failOnStatusCode": false,
  "defaultCommandTimeout": 50000,
  "execTimeout": 120000,
  "pageLoadTimeout": 120000,
  "requestTimeout": 60000,
  "responseTimeout": 60000,
  "viewportHeight": 1024,
  "viewportWidth": 1200
}
